{
	"nodes": [
		"Module",
		"FunctionDef",
		"arguments",
		"arg",
		"FunctionDef",
		"arguments",
		"arg",
		"arg",
		"Assign",
		"Tuple",
		"Subscript",
		"Name",
		"Index",
		"Name",
		"Subscript",
		"Name",
		"Index",
		"BinOp",
		"Name",
		"Add",
		"Num",
		"Tuple",
		"Subscript",
		"Name",
		"Index",
		"BinOp",
		"Name",
		"Add",
		"Num",
		"Subscript",
		"Name",
		"Index",
		"Name",
		"For",
		"Name",
		"Call",
		"Name",
		"Call",
		"Name",
		"Name",
		"Assign",
		"Name",
		"NameConstant",
		"For",
		"Name",
		"Call",
		"Name",
		"BinOp",
		"BinOp",
		"Call",
		"Name",
		"Name",
		"Sub",
		"Name",
		"Sub",
		"Num",
		"If",
		"Compare",
		"Subscript",
		"Name",
		"Index",
		"Name",
		"Gt",
		"Subscript",
		"Name",
		"Index",
		"BinOp",
		"Name",
		"Add",
		"Num",
		"Then",
		"Expr",
		"Call",
		"Name",
		"Name",
		"Name",
		"Assign",
		"Name",
		"NameConstant",
		"Else",
		"If",
		"UnaryOp",
		"Not",
		"Name",
		"Then",
		"Break",
		"Else",
		"Return",
		"Name"
	],
	"adj": [
		[
			1
		],
		[
			2,
			4,
			33,
			87
		],
		[
			3
		],
		[],
		[
			5,
			8
		],
		[
			6,
			7
		],
		[],
		[],
		[
			9,
			21
		],
		[
			10,
			14
		],
		[
			11,
			12
		],
		[],
		[
			13
		],
		[],
		[
			15,
			16
		],
		[],
		[
			17
		],
		[
			18,
			19,
			20
		],
		[],
		[],
		[],
		[
			22,
			29
		],
		[
			23,
			24
		],
		[],
		[
			25
		],
		[
			26,
			27,
			28
		],
		[],
		[],
		[],
		[
			30,
			31
		],
		[],
		[
			32
		],
		[],
		[
			34,
			35,
			40,
			43,
			80
		],
		[],
		[
			36,
			37
		],
		[],
		[
			38,
			39
		],
		[],
		[],
		[
			41,
			42
		],
		[],
		[],
		[
			44,
			45,
			56
		],
		[],
		[
			46,
			47
		],
		[],
		[
			48,
			54,
			55
		],
		[
			49,
			52,
			53
		],
		[
			50,
			51
		],
		[],
		[],
		[],
		[],
		[],
		[],
		[
			57,
			70,
			79
		],
		[
			58,
			62,
			63
		],
		[
			59,
			60
		],
		[],
		[
			61
		],
		[],
		[],
		[
			64,
			65
		],
		[],
		[
			66
		],
		[
			67,
			68,
			69
		],
		[],
		[],
		[],
		[
			71,
			76
		],
		[
			72
		],
		[
			73,
			74,
			75
		],
		[],
		[],
		[],
		[
			77,
			78
		],
		[],
		[],
		[],
		[
			81,
			84,
			86
		],
		[
			82,
			83
		],
		[],
		[],
		[
			85
		],
		[],
		[],
		[
			88
		],
		[]
	],
	"var": {
		"sort": [
			1
		],
		"a": [
			3,
			6,
			11,
			15,
			23,
			30,
			39,
			51,
			59,
			64,
			74,
			88
		],
		"swap": [
			4,
			73
		],
		"i": [
			7,
			13,
			18,
			26,
			32,
			34,
			53
		],
		"range": [
			36,
			46
		],
		"len": [
			38,
			50
		],
		"swapped": [
			41,
			77,
			83
		],
		"j": [
			44,
			61,
			67,
			75
		]
	}
}