{
	"nodes": [
		"Module",
		"FunctionDef",
		"arguments",
		"arg",
		"For",
		"Name",
		"Call",
		"Name",
		"BinOp",
		"Call",
		"Name",
		"Name",
		"Sub",
		"Num",
		"If",
		"Compare",
		"Subscript",
		"Name",
		"Index",
		"Name",
		"Gt",
		"Subscript",
		"Name",
		"Index",
		"BinOp",
		"Name",
		"Add",
		"Num",
		"Then",
		"Pass",
		"Else",
		"Return",
		"Name"
	],
	"adj": [
		[
			1
		],
		[
			2,
			4,
			31
		],
		[
			3
		],
		[],
		[
			5,
			6,
			14
		],
		[],
		[
			7,
			8
		],
		[],
		[
			9,
			12,
			13
		],
		[
			10,
			11
		],
		[],
		[],
		[],
		[],
		[
			15,
			28,
			30
		],
		[
			16,
			20,
			21
		],
		[
			17,
			18
		],
		[],
		[
			19
		],
		[],
		[],
		[
			22,
			23
		],
		[],
		[
			24
		],
		[
			25,
			26,
			27
		],
		[],
		[],
		[],
		[
			29
		],
		[],
		[],
		[
			32
		],
		[]
	],
	"var": {
		"sort": [
			1
		],
		"a": [
			3,
			11,
			17,
			22,
			32
		],
		"i": [
			5,
			19,
			25
		],
		"range": [
			7
		],
		"len": [
			10
		]
	}
}