{
	"nodes": [
		"Module",
		"FunctionDef",
		"arguments",
		"arg",
		"Assign",
		"Name",
		"NameConstant",
		"While",
		"Name",
		"Assign",
		"Name",
		"NameConstant",
		"For",
		"Name",
		"Call",
		"Name",
		"BinOp",
		"Call",
		"Name",
		"Name",
		"Sub",
		"Num",
		"If",
		"Compare",
		"Subscript",
		"Name",
		"Index",
		"Name",
		"Gt",
		"Subscript",
		"Name",
		"Index",
		"BinOp",
		"Name",
		"Add",
		"Num",
		"Then",
		"Assign",
		"Tuple",
		"Subscript",
		"Name",
		"Index",
		"Name",
		"Subscript",
		"Name",
		"Index",
		"BinOp",
		"Name",
		"Add",
		"Num",
		"Tuple",
		"Subscript",
		"Name",
		"Index",
		"BinOp",
		"Name",
		"Add",
		"Num",
		"Subscript",
		"Name",
		"Index",
		"Name",
		"Assign",
		"Name",
		"NameConstant",
		"Else",
		"Return",
		"Name"
	],
	"adj": [
		[
			1
		],
		[
			2,
			4,
			7,
			66
		],
		[
			3
		],
		[],
		[
			5,
			6
		],
		[],
		[],
		[
			8,
			9,
			12
		],
		[],
		[
			10,
			11
		],
		[],
		[],
		[
			13,
			14,
			22
		],
		[],
		[
			15,
			16
		],
		[],
		[
			17,
			20,
			21
		],
		[
			18,
			19
		],
		[],
		[],
		[],
		[],
		[
			23,
			36,
			65
		],
		[
			24,
			28,
			29
		],
		[
			25,
			26
		],
		[],
		[
			27
		],
		[],
		[],
		[
			30,
			31
		],
		[],
		[
			32
		],
		[
			33,
			34,
			35
		],
		[],
		[],
		[],
		[
			37,
			62
		],
		[
			38,
			50
		],
		[
			39,
			43
		],
		[
			40,
			41
		],
		[],
		[
			42
		],
		[],
		[
			44,
			45
		],
		[],
		[
			46
		],
		[
			47,
			48,
			49
		],
		[],
		[],
		[],
		[
			51,
			58
		],
		[
			52,
			53
		],
		[],
		[
			54
		],
		[
			55,
			56,
			57
		],
		[],
		[],
		[],
		[
			59,
			60
		],
		[],
		[
			61
		],
		[],
		[
			63,
			64
		],
		[],
		[],
		[],
		[
			67
		],
		[]
	],
	"var": {
		"sort": [
			1
		],
		"a": [
			3,
			19,
			25,
			30,
			40,
			44,
			52,
			59,
			67
		],
		"swapped": [
			5,
			8,
			10,
			63
		],
		"j": [
			13,
			27,
			33,
			42,
			47,
			55,
			61
		],
		"range": [
			15
		],
		"len": [
			18
		]
	}
}