{
	"nodes": [
		"Module",
		"FunctionDef",
		"arguments",
		"arg",
		"For",
		"Name",
		"Call",
		"Name",
		"Call",
		"Name",
		"Name",
		"Assign",
		"Name",
		"NameConstant",
		"For",
		"Name",
		"Call",
		"Name",
		"BinOp",
		"BinOp",
		"Call",
		"Name",
		"Name",
		"Sub",
		"Name",
		"Sub",
		"Num",
		"If",
		"Compare",
		"Subscript",
		"Name",
		"Index",
		"Name",
		"Gt",
		"Subscript",
		"Name",
		"Index",
		"BinOp",
		"Name",
		"Add",
		"Num",
		"Then",
		"Assign",
		"Tuple",
		"Subscript",
		"Name",
		"Index",
		"Name",
		"Subscript",
		"Name",
		"Index",
		"BinOp",
		"Name",
		"Add",
		"Num",
		"Tuple",
		"Subscript",
		"Name",
		"Index",
		"BinOp",
		"Name",
		"Add",
		"Num",
		"Subscript",
		"Name",
		"Index",
		"Name",
		"Assign",
		"Name",
		"NameConstant",
		"Else",
		"If",
		"UnaryOp",
		"Not",
		"Name",
		"Then",
		"Break",
		"Else",
		"Return",
		"Name"
	],
	"adj": [
		[
			1
		],
		[
			2,
			4,
			78
		],
		[
			3
		],
		[],
		[
			5,
			6,
			11,
			14,
			71
		],
		[],
		[
			7,
			8
		],
		[],
		[
			9,
			10
		],
		[],
		[],
		[
			12,
			13
		],
		[],
		[],
		[
			15,
			16,
			27
		],
		[],
		[
			17,
			18
		],
		[],
		[
			19,
			25,
			26
		],
		[
			20,
			23,
			24
		],
		[
			21,
			22
		],
		[],
		[],
		[],
		[],
		[],
		[],
		[
			28,
			41,
			70
		],
		[
			29,
			33,
			34
		],
		[
			30,
			31
		],
		[],
		[
			32
		],
		[],
		[],
		[
			35,
			36
		],
		[],
		[
			37
		],
		[
			38,
			39,
			40
		],
		[],
		[],
		[],
		[
			42,
			67
		],
		[
			43,
			55
		],
		[
			44,
			48
		],
		[
			45,
			46
		],
		[],
		[
			47
		],
		[],
		[
			49,
			50
		],
		[],
		[
			51
		],
		[
			52,
			53,
			54
		],
		[],
		[],
		[],
		[
			56,
			63
		],
		[
			57,
			58
		],
		[],
		[
			59
		],
		[
			60,
			61,
			62
		],
		[],
		[],
		[],
		[
			64,
			65
		],
		[],
		[
			66
		],
		[],
		[
			68,
			69
		],
		[],
		[],
		[],
		[
			72,
			75,
			77
		],
		[
			73,
			74
		],
		[],
		[],
		[
			76
		],
		[],
		[],
		[
			79
		],
		[]
	],
	"var": {
		"sort": [
			1
		],
		"a": [
			3,
			10,
			22,
			30,
			35,
			45,
			49,
			57,
			64,
			79
		],
		"i": [
			5,
			24
		],
		"range": [
			7,
			17
		],
		"len": [
			9,
			21
		],
		"swapped": [
			12,
			68,
			74
		],
		"j": [
			15,
			32,
			38,
			47,
			52,
			60,
			66
		]
	}
}