{
	"nodes": [
		"Module",
		"FunctionDef",
		"arguments",
		"arg",
		"Assign",
		"Name",
		"NameConstant",
		"Assign",
		"Name",
		"Num",
		"While",
		"Name",
		"Assign",
		"Name",
		"NameConstant",
		"For",
		"Name",
		"Call",
		"Name",
		"BinOp",
		"BinOp",
		"Call",
		"Name",
		"Name",
		"Sub",
		"Name",
		"Sub",
		"Num",
		"If",
		"Compare",
		"Subscript",
		"Name",
		"Index",
		"Name",
		"Gt",
		"Subscript",
		"Name",
		"Index",
		"BinOp",
		"Name",
		"Add",
		"Num",
		"Then",
		"Assign",
		"Tuple",
		"Subscript",
		"Name",
		"Index",
		"Name",
		"Subscript",
		"Name",
		"Index",
		"BinOp",
		"Name",
		"Add",
		"Num",
		"Tuple",
		"Subscript",
		"Name",
		"Index",
		"BinOp",
		"Name",
		"Add",
		"Num",
		"Subscript",
		"Name",
		"Index",
		"Name",
		"Assign",
		"Name",
		"NameConstant",
		"Else",
		"AugAssign",
		"Name",
		"Add",
		"Num",
		"Return",
		"Name"
	],
	"adj": [
		[
			1
		],
		[
			2,
			4,
			7,
			10,
			76
		],
		[
			3
		],
		[],
		[
			5,
			6
		],
		[],
		[],
		[
			8,
			9
		],
		[],
		[],
		[
			11,
			12,
			15,
			72
		],
		[],
		[
			13,
			14
		],
		[],
		[],
		[
			16,
			17,
			28
		],
		[],
		[
			18,
			19
		],
		[],
		[
			20,
			26,
			27
		],
		[
			21,
			24,
			25
		],
		[
			22,
			23
		],
		[],
		[],
		[],
		[],
		[],
		[],
		[
			29,
			42,
			71
		],
		[
			30,
			34,
			35
		],
		[
			31,
			32
		],
		[],
		[
			33
		],
		[],
		[],
		[
			36,
			37
		],
		[],
		[
			38
		],
		[
			39,
			40,
			41
		],
		[],
		[],
		[],
		[
			43,
			68
		],
		[
			44,
			56
		],
		[
			45,
			49
		],
		[
			46,
			47
		],
		[],
		[
			48
		],
		[],
		[
			50,
			51
		],
		[],
		[
			52
		],
		[
			53,
			54,
			55
		],
		[],
		[],
		[],
		[
			57,
			64
		],
		[
			58,
			59
		],
		[],
		[
			60
		],
		[
			61,
			62,
			63
		],
		[],
		[],
		[],
		[
			65,
			66
		],
		[],
		[
			67
		],
		[],
		[
			69,
			70
		],
		[],
		[],
		[],
		[
			73,
			74,
			75
		],
		[],
		[],
		[],
		[
			77
		],
		[]
	],
	"var": {
		"sort": [
			1
		],
		"a": [
			3,
			23,
			31,
			36,
			46,
			50,
			58,
			65,
			77
		],
		"swapped": [
			5,
			11,
			13,
			69
		],
		"i": [
			8,
			25,
			73
		],
		"j": [
			16,
			33,
			39,
			48,
			53,
			61,
			67
		],
		"range": [
			18
		],
		"len": [
			22
		]
	}
}