{
	"nodes": [
		"Module",
		"FunctionDef",
		"arguments",
		"arg",
		"FunctionDef",
		"arguments",
		"arg",
		"arg",
		"Assign",
		"Name",
		"Subscript",
		"Name",
		"Index",
		"Name",
		"Assign",
		"Subscript",
		"Name",
		"Index",
		"Name",
		"Subscript",
		"Name",
		"Index",
		"BinOp",
		"Name",
		"Add",
		"Num",
		"Assign",
		"Subscript",
		"Name",
		"Index",
		"BinOp",
		"Name",
		"Add",
		"Num",
		"Name",
		"For",
		"Name",
		"Call",
		"Name",
		"Call",
		"Name",
		"Name",
		"Assign",
		"Name",
		"NameConstant",
		"For",
		"Name",
		"Call",
		"Name",
		"BinOp",
		"Call",
		"Name",
		"Name",
		"Sub",
		"Num",
		"If",
		"Compare",
		"Subscript",
		"Name",
		"Index",
		"Name",
		"Gt",
		"Subscript",
		"Name",
		"Index",
		"BinOp",
		"Name",
		"Add",
		"Num",
		"Then",
		"Expr",
		"Call",
		"Name",
		"Name",
		"Name",
		"Assign",
		"Name",
		"NameConstant",
		"Else",
		"If",
		"UnaryOp",
		"Not",
		"Name",
		"Then",
		"Break",
		"Else",
		"Return",
		"Name"
	],
	"adj": [
		[
			1
		],
		[
			2,
			4,
			35,
			86
		],
		[
			3
		],
		[],
		[
			5,
			8,
			14,
			26
		],
		[
			6,
			7
		],
		[],
		[],
		[
			9,
			10
		],
		[],
		[
			11,
			12
		],
		[],
		[
			13
		],
		[],
		[
			15,
			19
		],
		[
			16,
			17
		],
		[],
		[
			18
		],
		[],
		[
			20,
			21
		],
		[],
		[
			22
		],
		[
			23,
			24,
			25
		],
		[],
		[],
		[],
		[
			27,
			34
		],
		[
			28,
			29
		],
		[],
		[
			30
		],
		[
			31,
			32,
			33
		],
		[],
		[],
		[],
		[],
		[
			36,
			37,
			42,
			45,
			79
		],
		[],
		[
			38,
			39
		],
		[],
		[
			40,
			41
		],
		[],
		[],
		[
			43,
			44
		],
		[],
		[],
		[
			46,
			47,
			55
		],
		[],
		[
			48,
			49
		],
		[],
		[
			50,
			53,
			54
		],
		[
			51,
			52
		],
		[],
		[],
		[],
		[],
		[
			56,
			69,
			78
		],
		[
			57,
			61,
			62
		],
		[
			58,
			59
		],
		[],
		[
			60
		],
		[],
		[],
		[
			63,
			64
		],
		[],
		[
			65
		],
		[
			66,
			67,
			68
		],
		[],
		[],
		[],
		[
			70,
			75
		],
		[
			71
		],
		[
			72,
			73,
			74
		],
		[],
		[],
		[],
		[
			76,
			77
		],
		[],
		[],
		[],
		[
			80,
			83,
			85
		],
		[
			81,
			82
		],
		[],
		[],
		[
			84
		],
		[],
		[],
		[
			87
		],
		[]
	],
	"var": {
		"sort": [
			1
		],
		"a": [
			3,
			6,
			11,
			16,
			20,
			28,
			41,
			52,
			58,
			63,
			73,
			87
		],
		"swap": [
			4,
			72
		],
		"i": [
			7,
			13,
			18,
			23,
			31,
			36
		],
		"tmp": [
			9,
			34
		],
		"range": [
			38,
			48
		],
		"len": [
			40,
			51
		],
		"swapped": [
			43,
			76,
			82
		],
		"j": [
			46,
			60,
			66,
			74
		]
	}
}