{
	"nodes": [
		"Module",
		"FunctionDef",
		"arguments",
		"arg",
		"FunctionDef",
		"arguments",
		"arg",
		"arg",
		"Assign",
		"Tuple",
		"Subscript",
		"Name",
		"Index",
		"Name",
		"Subscript",
		"Name",
		"Index",
		"BinOp",
		"Name",
		"Add",
		"Num",
		"Tuple",
		"Subscript",
		"Name",
		"Index",
		"BinOp",
		"Name",
		"Add",
		"Num",
		"Subscript",
		"Name",
		"Index",
		"Name",
		"Return",
		"Name"
	],
	"adj": [
		[
			1
		],
		[
			2,
			4,
			33
		],
		[
			3
		],
		[],
		[
			5,
			8
		],
		[
			6,
			7
		],
		[],
		[],
		[
			9,
			21
		],
		[
			10,
			14
		],
		[
			11,
			12
		],
		[],
		[
			13
		],
		[],
		[
			15,
			16
		],
		[],
		[
			17
		],
		[
			18,
			19,
			20
		],
		[],
		[],
		[],
		[
			22,
			29
		],
		[
			23,
			24
		],
		[],
		[
			25
		],
		[
			26,
			27,
			28
		],
		[],
		[],
		[],
		[
			30,
			31
		],
		[],
		[
			32
		],
		[],
		[
			34
		],
		[]
	],
	"var": {
		"sort": [
			1
		],
		"a": [
			3,
			6,
			11,
			15,
			23,
			30,
			34
		],
		"swap": [
			4
		],
		"i": [
			7,
			13,
			18,
			26,
			32
		]
	}
}