{
	"nodes": [
		"Module",
		"FunctionDef",
		"arguments",
		"arg",
		"For",
		"Name",
		"Call",
		"Name",
		"Call",
		"Name",
		"Name",
		"For",
		"Name",
		"Call",
		"Name",
		"BinOp",
		"BinOp",
		"Call",
		"Name",
		"Name",
		"Sub",
		"Name",
		"Sub",
		"Num",
		"If",
		"Compare",
		"Subscript",
		"Name",
		"Index",
		"Name",
		"Gt",
		"Subscript",
		"Name",
		"Index",
		"BinOp",
		"Name",
		"Add",
		"Num",
		"Then",
		"Pass",
		"Else",
		"Return",
		"Name"
	],
	"adj": [
		[
			1
		],
		[
			2,
			4,
			41
		],
		[
			3
		],
		[],
		[
			5,
			6,
			11
		],
		[],
		[
			7,
			8
		],
		[],
		[
			9,
			10
		],
		[],
		[],
		[
			12,
			13,
			24
		],
		[],
		[
			14,
			15
		],
		[],
		[
			16,
			22,
			23
		],
		[
			17,
			20,
			21
		],
		[
			18,
			19
		],
		[],
		[],
		[],
		[],
		[],
		[],
		[
			25,
			38,
			40
		],
		[
			26,
			30,
			31
		],
		[
			27,
			28
		],
		[],
		[
			29
		],
		[],
		[],
		[
			32,
			33
		],
		[],
		[
			34
		],
		[
			35,
			36,
			37
		],
		[],
		[],
		[],
		[
			39
		],
		[],
		[],
		[
			42
		],
		[]
	],
	"var": {
		"sort": [
			1
		],
		"a": [
			3,
			10,
			19,
			27,
			32,
			42
		],
		"i": [
			5,
			21
		],
		"range": [
			7,
			14
		],
		"len": [
			9,
			18
		],
		"j": [
			12,
			29,
			35
		]
	}
}